<svg width="240" height="240" viewBox="0 0 240 240" fill="none" xmlns="http://www.w3.org/2000/svg">
<path d="M159.206 82.4625L102.84 138.947L80.794 116.782C78.5501 114.539 75.5066 113.278 72.3332 113.278C69.1598 113.278 66.1163 114.539 63.8724 116.782C61.6284 119.026 60.3678 122.07 60.3678 125.243C60.3678 126.815 60.6773 128.371 61.2786 129.822C61.8799 131.274 62.7613 132.593 63.8724 133.704L94.379 164.211C95.4868 165.328 96.8048 166.214 98.257 166.819C99.7091 167.424 101.267 167.736 102.84 167.736C104.413 167.736 105.971 167.424 107.423 166.819C108.875 166.214 110.193 165.328 111.301 164.211L176.127 99.3841C177.238 98.273 178.12 96.954 178.721 95.5023C179.322 94.0505 179.632 92.4946 179.632 90.9233C179.632 89.352 179.322 87.796 178.721 86.3443C178.12 84.8926 177.238 83.5736 176.127 82.4625C175.016 81.3514 173.697 80.47 172.245 79.8687C170.794 79.2674 169.238 78.9579 167.667 78.9579C166.095 78.9579 164.539 79.2674 163.088 79.8687C161.636 80.47 160.317 81.3514 159.206 82.4625ZM120 0.833282C104.351 0.833282 88.8547 3.91562 74.3967 9.90431C59.9388 15.893 46.8019 24.6707 35.7363 35.7364C13.3882 58.0845 0.833202 88.395 0.833202 120C0.729025 147.517 10.2568 174.203 27.7649 195.432L3.93153 219.266C2.27801 220.942 1.15788 223.07 0.71251 225.381C0.267135 227.693 0.516463 230.085 1.42903 232.255C2.41881 234.399 4.02334 236.201 6.03896 237.431C8.05457 238.662 10.3904 239.266 12.7499 239.167H120C151.605 239.167 181.915 226.612 204.263 204.264C226.611 181.915 239.166 151.605 239.166 120C239.166 88.395 226.611 58.0845 204.263 35.7364C181.915 13.3883 151.605 0.833282 120 0.833282ZM120 215.333H41.469L52.5515 204.251C54.771 202.018 56.0168 198.998 56.0168 195.85C56.0168 192.701 54.771 189.681 52.5515 187.448C36.9477 171.862 27.2307 151.347 25.0561 129.4C22.8815 107.452 28.3838 85.4298 40.6256 67.0843C52.8675 48.7387 71.0914 35.2052 92.1925 28.7895C113.294 22.3737 135.967 23.4726 156.348 31.899C176.73 40.3254 193.56 55.5579 203.97 75.0013C214.38 94.4448 217.727 116.896 213.44 138.53C209.153 160.165 197.498 179.643 180.459 193.648C163.421 207.652 142.055 215.316 120 215.333Z" fill="#23AD46"/>
</svg>
