<svg width="91" height="80" viewBox="0 0 91 80" fill="none" xmlns="http://www.w3.org/2000/svg">
<path d="M60.7295 2.71079C61.178 1.72822 62.0144 1.45109 62.7098 1.42086C63.7679 1.37047 64.8764 2.10109 65.9195 2.96273C66.6602 3.79917 67.547 4.44414 68.5749 4.89763C69.2854 5.14957 69.9908 5.19996 70.7063 5.16469C71.7141 5.1143 72.737 4.89259 73.7498 4.8422L73.8052 4.83716L74.2637 4.79685C75.4227 4.74143 76.5161 5.01352 77.5541 5.61314C78.5064 6.47981 78.9246 7.55812 78.7936 8.85813C78.5719 9.93139 78.7634 10.914 79.363 11.8058C80.396 12.5314 81.4793 13.1663 82.6181 13.7055C83.7971 14.3504 84.5378 15.3229 84.8603 16.6179C84.9762 17.9884 84.3413 18.8652 82.9708 19.2431C81.187 19.6916 78.7886 19.6916 76.768 21.2536C73.8153 23.7176 72.8881 26.2017 71.6032 26.5796C70.9734 25.8641 67.0431 22.8257 60.4524 21.3695C59.2733 17.3032 58.5578 7.48757 60.7295 2.71079Z" fill="#FCC21B"/>
<path d="M67.3809 20.5028C68.5398 18.185 71.8402 14.1086 72.6313 14.9148C73.4123 15.7915 71.6134 20.3466 70.3487 22.5788C69.9003 22.1052 68.4541 21.1125 67.8243 20.9462" fill="#D19B15"/>
<path d="M73.2109 27.925C72.5307 27.925 71.8655 27.5773 71.4876 26.9525C68.0209 21.2486 60.1705 21.8482 60.0949 21.8583C58.9864 21.949 58.0088 21.1327 57.9131 20.0292C57.8663 19.4984 58.0312 18.9706 58.372 18.561C58.7127 18.1513 59.2016 17.893 59.7321 17.8424C60.1554 17.8021 70.1473 16.9807 74.9342 24.8665C75.5136 25.8188 75.2063 27.0583 74.259 27.6328C73.9264 27.8293 73.5686 27.925 73.2109 27.925Z" fill="#8D6E63"/>
<path d="M74.6522 61.5087C66.0207 63.635 54.0233 63.4839 45.4523 61.7908C37.4305 60.2036 31.2882 55.4722 31.9937 46.1605C32.7092 36.7379 38.9523 27.8646 47.5384 23.9545C55.8474 20.1704 66.9982 18.3261 72.8735 26.9123C74.3347 29.0487 77.1262 33.7902 77.2572 36.1182C77.2673 36.3046 77.2774 36.4709 77.3177 36.6321C77.3278 37.2166 77.5646 37.8062 78.139 38.2395C81.8325 41.036 84.5232 44.7446 85.017 49.8287C85.6015 55.8904 79.8673 60.2238 74.6522 61.5087Z" fill="#FCC21B"/>
<path d="M66.9978 45.9186C65.9497 44.2155 64.0199 42.3662 62.1958 40.779L63.6117 36.8588C64.8714 37.8414 65.98 38.7635 66.8466 39.5596C66.9877 39.6957 67.2094 39.7058 67.3707 39.5899L70.6157 37.1763C70.7064 37.1057 70.7618 37.005 70.7769 36.8891C70.7823 36.8325 70.7756 36.7754 70.7574 36.7215C70.7392 36.6677 70.7098 36.6183 70.6711 36.5767C69.7087 35.5034 67.6226 33.6239 65.34 32.077L66.1714 29.7793C66.2672 29.5173 66.1362 29.2301 65.8691 29.1293L62.0547 27.7487C61.7927 27.6529 61.5005 27.789 61.4047 28.051L60.785 29.7692C57.1923 28.6557 54.3403 29.0134 52.1031 30.8828C50.3496 32.3541 49.5938 34.4553 50.1279 36.36C50.6721 38.3906 52.2643 39.7813 54.2799 41.5399L54.5368 41.7666C55.0055 42.1697 55.5043 42.588 55.9931 43.0062L54.2698 47.7729C52.0074 46.2915 50.1128 44.2407 49.7903 43.7922C49.7299 43.7089 49.6401 43.6517 49.5391 43.632C49.438 43.6124 49.3333 43.6318 49.2461 43.6864L45.5073 46.0748C45.4166 46.1302 45.3511 46.226 45.3259 46.3368C45.3058 46.4426 45.3259 46.5535 45.3864 46.6442C46.51 48.3372 48.3492 50.2318 50.3093 51.7132C50.7779 52.0659 51.4833 52.5597 52.35 53.0787L51.7 54.8675C51.6093 55.1295 51.7403 55.4167 52.0023 55.5125L55.8217 56.8981C56.0838 56.9939 56.376 56.8578 56.4717 56.5958L57.0109 55.1043C60.4977 56.0516 63.5613 55.5024 65.9296 53.4768C68.2172 51.5167 68.6102 48.7655 66.9978 45.9186ZM59.0919 34.4654L58.0489 37.3526C57.0764 36.5968 56.5574 36.0274 56.9252 35.2111C57.3082 34.3747 58.2605 34.3193 59.0919 34.4654ZM60.1249 46.5081C60.795 47.1581 61.2687 47.7578 61.314 48.307C61.3342 48.6194 61.2183 48.9217 60.9462 49.2341C60.4726 49.7834 59.7167 49.8892 58.9357 49.7934L60.1249 46.5081Z" fill="#424242"/>
<g clip-path="url(#clip0)">
<path d="M53.7858 62.2632C53.7858 74.4571 44.0246 74.4571 31.8729 74.4571C19.7212 74.4571 9.95996 74.4571 9.95996 62.2632C9.95996 50.0693 19.8208 30.1156 31.8729 30.1156C43.925 30.1156 53.7858 49.9685 53.7858 62.2632Z" fill="#DBB471"/>
<path opacity="0.5" d="M53.7858 62.2632C53.7858 58.1314 52.6902 53.0926 50.6981 48.2553C51.0965 51.3794 50.2997 56.9221 40.8373 59.0383C27.3907 61.9609 34.363 65.7903 29.084 66.2942C24.6018 66.6973 12.6493 64.8834 10.2588 58.0306C10.0596 59.5422 9.86035 60.9531 9.86035 62.364C9.95996 74.4571 19.8208 74.4571 31.8729 74.4571C43.925 74.4571 53.7858 74.4571 53.7858 62.2632Z" fill="#89664C"/>
<path d="M37.7501 56.4182C37.3517 54.4026 35.6584 53.798 33.8656 53.6972V50.8755C34.3636 51.077 34.9612 51.3794 35.3596 51.6817C36.1564 52.1856 36.9533 50.8755 36.1564 50.3716C35.4592 49.9685 34.6624 49.5654 33.8656 49.2631V45.9375C33.8656 44.9297 32.3715 44.9297 32.3715 45.9375V48.86C31.5747 48.7592 30.7778 48.7592 29.981 48.86C29.8814 48.1545 29.6822 47.4491 29.483 46.7437C29.2838 45.7359 27.7897 46.139 28.0885 47.1468C28.2877 47.8522 28.3873 48.5576 28.5865 49.2631C28.4869 49.2631 28.4869 49.2631 28.3873 49.3638C26.3952 50.1701 25.1004 52.1856 26.5944 54.1003C27.2917 55.0073 28.1881 55.3096 29.1842 55.5112C29.2838 56.8213 29.2838 58.1314 29.2838 59.4414C28.5865 59.0383 27.9889 58.4337 27.4909 57.9298C26.7937 57.2244 25.7976 58.3329 26.3952 59.0383C27.2917 60.0461 28.2877 60.7515 29.2838 61.2554C29.2838 62.364 29.3834 63.4725 29.483 64.581C29.5826 65.5888 31.0766 65.5888 30.977 64.581C30.8774 63.5733 30.7778 62.6663 30.7778 61.6585C31.3754 61.7593 31.9731 61.7593 32.5707 61.7593C32.6703 62.7671 32.7699 63.7748 32.8695 64.8834C32.9691 65.8911 34.4632 65.8911 34.3636 64.8834C34.264 63.7748 34.1644 62.6663 34.0648 61.457C36.2561 60.6508 38.2481 58.9376 37.7501 56.4182ZM32.3715 50.3716V53.6972C31.8735 53.6972 31.4751 53.798 31.0766 53.798H30.5786L30.2798 50.1701C30.977 50.1701 31.6743 50.2708 32.3715 50.3716ZM28.7857 53.5964C28.3873 53.4957 27.9889 53.1933 27.5905 52.891C26.694 51.984 27.9889 51.1778 28.7857 50.7747C28.8853 51.7825 28.9849 52.6895 29.0845 53.6972C28.9849 53.6972 28.8853 53.6972 28.7857 53.5964ZM32.0727 60.0461C31.5747 60.1469 31.1762 60.0461 30.7778 59.9453C30.6782 58.4337 30.6782 56.922 30.6782 55.3096C31.2758 55.3096 31.8735 55.2089 32.4711 55.2089C32.4711 56.8213 32.5707 58.3329 32.5707 59.9453C32.3715 60.0461 32.2719 60.0461 32.0727 60.0461ZM35.3596 58.9376C34.9612 59.2399 34.4632 59.4414 34.0648 59.643C33.9652 58.1314 33.9652 56.7205 33.9652 55.2089H34.4632C36.3557 55.612 36.8537 57.7283 35.3596 58.9376Z" fill="#89664C"/>
<path d="M33.8651 70.426H31.5742V74.4571L40.8374 79.4959L61.7543 72.9454V69.4183L54.0848 64.8834L33.8651 70.426Z" fill="#699635"/>
<path d="M31.873 68.1082C31.873 68.1082 34.2635 72.0385 41.0366 75.4649C41.0366 75.4649 51.5947 74.961 61.7543 68.1082C61.7543 68.1082 55.8777 65.1857 54.1844 61.3562C54.1844 61.3562 50.2002 66.9997 31.873 68.1082Z" fill="#83BF4F"/>
<path d="M27.3912 70.3253L29.5825 70.2245L29.8813 73.9532L21.2157 79.4959L0.398422 74.961L0.0996094 71.6354L7.17151 66.6973L27.3912 70.3253Z" fill="#699635"/>
<path d="M29.0844 68.0074C29.0844 68.0074 26.9927 71.9377 20.7177 75.6664C20.7177 75.6664 10.4584 75.9687 0 70.426C0 70.426 5.57784 67.2012 6.87269 63.3717C6.87269 63.3717 11.2553 68.4105 29.0844 68.0074Z" fill="#83BF4F"/>
<path d="M24.1044 69.1159C24.1044 69.1159 23.8056 69.9221 25.2001 70.0229L21.5147 73.1469C21.5147 73.1469 19.3234 72.9454 18.8254 74.457C18.8254 74.457 9.86102 73.4492 4.08397 70.8291C4.08397 70.8291 5.27922 69.9221 3.78516 69.3174C3.78516 69.3174 5.47843 68.1081 5.87685 66.9996C5.87685 66.9996 7.47051 67.2011 7.96853 65.9918C8.16774 65.891 14.144 69.519 24.1044 69.1159V69.1159Z" stroke="#699635" stroke-width="0.25" stroke-miterlimit="10"/>
<path d="M8.76553 70.5268C9.81072 70.5268 10.658 69.9402 10.658 69.2167C10.658 68.4932 9.81072 67.9066 8.76553 67.9066C7.72034 67.9066 6.87305 68.4932 6.87305 69.2167C6.87305 69.9402 7.72034 70.5268 8.76553 70.5268Z" fill="#699635"/>
<path d="M18.9243 67.6042C18.9243 67.6042 16.6334 70.6275 11.6531 74.7593L11.952 77.4802L8.46581 76.674L8.2666 73.7515C8.2666 73.7515 13.3464 69.0151 14.4421 66.6972C14.3425 66.6972 16.1353 67.3019 18.9243 67.6042Z" fill="#F9F3D9"/>
<path d="M41.9326 66.8988C41.9326 66.8988 42.8291 69.3174 49.6021 73.7516V76.6741L53.4867 75.4648V72.4415C53.4867 72.4415 48.8053 69.1159 46.0164 65.7903L41.9326 66.8988Z" fill="#F9F3D9"/>
<path d="M36.2557 63.6741L34.0644 63.5733L33.8652 67.7051L42.73 73.4494L63.5473 67.7051L63.6469 64.0772L56.3758 58.9376L36.2557 63.6741Z" fill="#699635"/>
<path d="M34.4629 61.1546C34.4629 61.1546 36.6542 65.3872 43.1285 69.2167C43.1285 69.2167 53.4873 69.2167 63.7465 62.7671C63.7465 62.7671 58.0691 59.4415 56.6746 55.3096C56.6746 55.3096 52.3916 60.9531 34.4629 61.1546Z" fill="#83BF4F"/>
<path d="M38.9453 62.2632C38.9453 62.2632 39.4433 63.0694 37.8496 63.3717L42.033 66.6974C42.033 66.6974 44.4235 66.0927 45.2203 67.5036C45.2203 67.5036 55.1807 65.6896 59.7625 63.271C59.7625 63.271 58.2685 62.5655 59.7625 61.6585C59.7625 61.6585 57.9697 60.1469 57.2724 59.1391C57.2724 59.1391 55.5792 59.643 54.6827 58.4337C54.6827 58.5345 51.097 61.7593 38.9453 62.2632V62.2632Z" stroke="#699635" stroke-width="0.25" stroke-miterlimit="10"/>
<path d="M46.6146 64.7826C46.2162 65.2865 44.9213 65.488 43.8257 65.1857C42.73 64.8834 42.232 64.1779 42.6304 63.6741C43.0288 63.1702 44.3237 62.9686 45.4193 63.271C46.515 63.5733 47.013 64.1779 46.6146 64.7826Z" fill="#699635"/>
<path d="M44.623 60.3483C44.623 60.3483 47.0135 63.5732 52.0934 67.9065L51.9938 70.9298L55.4799 69.9221L55.5795 66.6972C55.5795 66.6972 50.4001 61.6584 49.1052 59.2398C49.2048 59.2398 47.5116 59.9452 44.623 60.3483Z" fill="#F9F3D9"/>
<path d="M45.8179 17.0147C45.8179 23.1621 37.9492 33.1389 31.8733 33.1389C25.7974 33.1389 17.9287 24.1698 17.9287 18.0225C17.9287 11.8751 18.8251 18.0225 24.901 18.0225C25.7974 18.0225 29.9808 14.9992 31.8733 14.9992C33.1682 14.9992 36.8535 18.0225 38.8456 18.0225C44.1246 18.0225 45.8179 12.379 45.8179 17.0147Z" fill="#DBB471"/>
<path d="M30.0806 28.4024C29.4829 28.8055 26.5944 28.5032 25.698 29.2087C24.5027 30.1156 26.196 32.2319 25.0007 33.542C22.6102 35.9606 20.7178 38.6816 21.3154 40.1932C22.3114 42.8134 24.2039 35.356 25.8972 38.1777C27.5905 40.9994 27.2916 36.263 29.8813 38.6816C32.4711 41.1002 30.2798 34.3482 32.7699 37.2707C35.26 40.1932 35.3596 43.5189 37.1525 43.5189C39.2441 43.5189 34.9612 35.5575 37.7501 37.4723C40.539 39.387 43.6267 38.6816 40.8378 35.7591C39.9414 34.8521 38.7461 33.2397 37.3517 31.8288C36.8536 31.3249 37.2521 28.7048 36.754 28.3017C36.1564 27.7978 34.6624 29.4102 34.0647 29.1079C32.8695 28.5032 33.2679 29.6118 31.475 29.9141C30.2798 30.3172 31.2758 27.5962 30.0806 28.4024Z" fill="#89664C"/>
<path d="M18.6263 34.3482C22.5108 30.6195 29.5827 32.7358 33.7661 34.5498C37.8499 36.3638 40.34 30.6195 37.7503 27.697C36.2562 25.9838 33.8657 27.9994 32.9693 29.2087C31.9732 30.418 31.1764 31.7281 30.0808 32.9374C28.4871 34.7514 24.6025 33.2397 25.7978 30.7203C27.0926 28.1001 32.5709 31.1234 34.3637 31.6273C37.8499 32.6351 41.5352 33.0382 45.0214 31.7281C46.2166 31.325 45.7186 29.3094 44.5234 29.8133C40.6388 31.2242 36.7542 30.3172 33.0689 29.1079C31.1764 28.5032 28.1883 26.8908 26.1962 27.7978C20.5187 30.5188 25.7978 38.2785 30.5788 35.2552C31.6744 34.5498 32.3716 33.4413 33.1685 32.4335C33.6665 31.8288 36.1566 27.9994 36.7542 29.9141C37.053 30.9219 36.7542 32.7358 35.6586 33.0382C34.9614 33.3405 33.5669 32.3327 32.8697 32.1312C31.5748 31.6273 30.28 31.2242 28.8855 30.9219C25.2001 30.1157 20.2199 30.3172 17.3314 33.0382C16.3354 33.8444 17.7298 35.2552 18.6263 34.3482Z" fill="#E8E8E8"/>
<path d="M44.6227 15.5031C43.6267 16.3093 41.8338 18.0225 38.8456 18.0225C36.8536 18.0225 33.1682 14.9992 31.8734 14.9992C29.9809 14.9992 25.7975 18.0225 24.9011 18.0225C21.6141 18.0225 19.8212 16.3093 18.9248 15.6039C18.9248 15.6039 20.0205 20.1388 23.407 22.4566C25.8971 24.0691 25.5983 22.1543 26.8931 20.3403C28.188 18.5264 29.0844 17.6194 31.3753 22.1543C32.5706 24.6737 34.8615 15.3015 36.6544 18.3248C39.9413 23.8675 41.1365 20.8442 44.6227 15.5031Z" fill="#89664C"/>
<path d="M52.1924 67.8059L52.0928 70.8291L55.5789 69.8214L55.6785 66.5966C55.6785 66.6973 53.5868 67.5035 52.1924 67.8059Z" fill="#DBB471"/>
<path d="M49.6025 73.8525V76.775L53.4871 75.5656V72.5424C53.3875 72.4416 52.3915 73.0462 49.6025 73.8525Z" fill="#DBB471"/>
<path d="M11.6533 74.6587L11.9521 77.4804L8.46594 76.6742L8.26673 73.7517C8.16712 73.7517 9.56158 74.2556 11.6533 74.6587Z" fill="#DBB471"/>
</g>
<defs>
<clipPath id="clip0">
<rect y="14.9992" width="63.7467" height="64.4967" fill="white"/>
</clipPath>
</defs>
</svg>
