<svg width="143" height="108" viewBox="0 0 143 108" fill="none" xmlns="http://www.w3.org/2000/svg">
<path d="M34.9755 103.883C52.2947 103.883 66.3347 89.6778 66.3347 72.1548C66.3347 54.6319 52.2947 40.4267 34.9755 40.4267C17.6563 40.4267 3.61633 54.6319 3.61633 72.1548C3.61633 89.6778 17.6563 103.883 34.9755 103.883Z" fill="#E5E4DF"/>
<path d="M52.778 72.1547C52.778 82.1024 44.8076 90.1665 34.9756 90.1665C25.1436 90.1665 17.3573 82.1006 17.1732 72.1547C16.9904 62.2826 24.5176 54.4019 34.9756 54.1428C44.8046 53.8991 52.778 62.207 52.778 72.1547Z" fill="#E5E4DF"/>
<path d="M34.9756 106.606C16.1999 106.606 0.924805 91.1512 0.924805 72.1547C0.924805 53.1579 16.1999 37.7031 34.9756 37.7031C53.7512 37.7031 69.0263 53.1579 69.0263 72.1547C69.0263 91.1512 53.7512 106.606 34.9756 106.606ZM34.9756 44.2174C19.75 44.2174 7.36321 56.75 7.36321 72.1547C7.36321 87.5594 19.75 100.092 34.9756 100.092C50.2012 100.092 62.5878 87.5594 62.5878 72.1547C62.5878 56.75 50.201 44.2174 34.9756 44.2174Z" fill="#FF473E"/>
<path d="M34.9754 92.8899C23.6983 92.8899 14.6966 83.8043 14.4819 72.2056C14.2679 60.6497 23.05 51.714 34.9094 51.4202C46.192 51.1341 55.4697 60.552 55.4697 72.1546C55.4697 83.5881 46.2761 92.8899 34.9754 92.8899ZM35.3539 58.4088C35.2481 58.4088 35.1409 58.4103 35.0345 58.4128C27.1172 58.6089 21.2529 64.4967 21.394 72.1087C21.5368 79.8395 27.5028 85.8953 34.9752 85.8953C42.464 85.8953 48.5564 79.7312 48.5564 72.1545C48.5565 64.575 42.6338 58.4088 35.3539 58.4088Z" fill="#FF473E"/>
<path d="M34.9755 77.7924C38.0529 77.7924 40.5476 75.2683 40.5476 72.1547C40.5476 69.0412 38.0529 66.5171 34.9755 66.5171C31.8982 66.5171 29.4034 69.0412 29.4034 72.1547C29.4034 75.2683 31.8982 77.7924 34.9755 77.7924Z" fill="#FF473E"/>
<path d="M108.148 90.1491C107.818 90.1491 107.489 90.1294 107.159 90.0703C103.304 89.5188 100.631 85.9144 101.173 81.9949L107.353 37.1075L109.174 11.5223C109.465 7.58308 112.875 4.54988 116.71 4.90441C120.585 5.18016 121.806 8.25275 121.651 12.9601C121.496 17.6675 122.794 18.5735 122.581 21.587C122.367 24.6005 121.844 35.0788 121.36 38.6241C120.876 42.1694 115.102 83.9645 115.102 83.9645C114.618 87.5492 111.596 90.1491 108.148 90.1491Z" fill="#EDC0A2"/>
<path d="M103.866 93.576C103.478 93.576 103.091 93.5366 102.684 93.4775C98.8481 92.8276 96.2715 89.1247 96.9108 85.2249L104.137 41.4405C103.614 39.4118 102.452 35.1771 100.572 30.5288C97.2208 22.2368 93.7917 9.84796 93.6561 9.31617C92.6099 5.51482 94.7991 1.55591 98.5381 0.492321C102.277 -0.551571 103.808 2.40284 105.28 5.69209C106.617 8.66619 109.116 11.4039 109.852 13.925C111.092 18.1203 111.693 20.4051 113.591 25.0927C116.671 32.7545 118.066 37.9543 118.473 40.9875C118.88 44.0207 110.782 87.5884 110.782 87.5884C110.22 91.114 107.237 93.576 103.866 93.576Z" fill="#F2C7AA"/>
<path d="M121.399 63.9729C121.476 63.1457 121.515 62.2987 121.515 61.4518C121.515 43.7253 106.075 25.1913 104.312 23.1429C104.157 22.9657 104.002 22.7884 103.827 22.6308C103.827 22.6308 96.0587 15.0675 92.9396 12.0343C89.8205 8.98145 87.9413 9.07993 85.0353 7.40576C82.265 5.81038 77.9835 2.30448 75.0388 5.41646C72.1134 8.52844 72.2103 13.4722 75.2712 16.466L84.8803 25.8216L92.9396 33.6606C93.4239 34.2515 94.0245 35 94.7026 35.8863C89.3556 34.4485 83.6405 34.8227 77.751 35.7878C74.167 36.3787 68.045 40.0225 65.8559 42.8784C64.5579 44.5723 63.3761 47.6252 61.1869 49.7917C59.1527 51.781 56.0337 54.4794 58.9203 59.0883C61.7875 63.6972 68.3938 63.6972 72.9465 60.7821L83.3111 52.4901C89.7043 51.4265 96.7367 57.5717 98.4416 64.0517C100.263 70.965 96.233 78.095 89.433 79.9464C83.5242 81.5615 77.2861 78.6662 74.6319 73.0725C72.3071 68.1485 66.4758 66.0804 61.6519 68.4439C56.8086 70.8074 59.3658 75.3769 61.71 80.301C63.0274 83.0781 63.1242 87.943 65.0616 90.149C70.3892 96.2351 79.3202 100.549 85.9071 100.549H85.9265C99.3715 100.529 107.411 99.4652 114.192 92.5716C120.198 86.4658 121.651 76.4799 121.651 67.7939C121.631 66.5137 121.554 65.2334 121.399 63.9729Z" fill="#FFD3B6"/>
<path d="M43.9478 72.1288L43.257 69.6056L36.1943 71.5395L36.1947 71.5408C36.185 71.5433 36.1753 71.5446 36.1656 71.5472C35.9987 71.5915 35.8422 71.6683 35.7052 71.7733C35.5681 71.8784 35.4532 72.0095 35.3671 72.1592C35.281 72.3088 35.2253 72.474 35.2034 72.6453C35.1814 72.8166 35.1936 72.9905 35.2392 73.157C35.2848 73.3235 35.3629 73.4794 35.469 73.6156C35.5752 73.7518 35.7072 73.8656 35.8575 73.9505C36.0079 74.0354 36.1735 74.0897 36.345 74.1103C36.5164 74.1308 36.6902 74.1173 36.8563 74.0703C36.866 74.0677 36.875 74.0638 36.8847 74.0609L36.885 74.0623L43.9478 72.1288Z" fill="#2B3B47"/>
<path d="M80.8186 60.6775C93.9566 51.2856 85.4475 40.1676 71.4028 60.4036L46.6387 65.6716C46.4727 65.6957 46.3081 65.7296 46.146 65.7729C46.1361 65.7756 46.1268 65.7798 46.1166 65.7825L46.0977 65.7865L46.0982 65.7885C43.8684 66.4272 42.5607 68.7411 43.1749 70.9842C43.7891 73.2275 46.0931 74.5523 48.3373 73.966L48.3378 73.968L48.3559 73.9619C48.366 73.9592 48.3761 73.958 48.3862 73.9551C48.5478 73.9099 48.7067 73.8553 48.8619 73.7915L72.8555 65.7092C95.2496 75.9686 96.9084 62.0666 80.8186 60.6775Z" fill="#0074A8"/>
</svg>
