<svg width="104" height="78" viewBox="0 0 104 78" fill="none" xmlns="http://www.w3.org/2000/svg">
<g clip-path="url(#clip0)">
<path d="M25.3408 75.2665C37.8892 75.2665 48.0616 64.9744 48.0616 52.2784C48.0616 39.5825 37.8892 29.2904 25.3408 29.2904C12.7925 29.2904 2.62012 39.5825 2.62012 52.2784C2.62012 64.9744 12.7925 75.2665 25.3408 75.2665Z" fill="#E5E4DF"/>
<path d="M38.2396 52.2783C38.2396 59.4857 32.4648 65.3285 25.3412 65.3285C18.2176 65.3285 12.5762 59.4844 12.4428 52.2783C12.3104 45.1257 17.764 39.4159 25.3412 39.2282C32.4626 39.0516 38.2396 45.0709 38.2396 52.2783Z" fill="#E5E4DF"/>
<path d="M25.3408 77.2395C11.7372 77.2395 0.669922 66.042 0.669922 52.2784C0.669922 38.5147 11.7372 27.3171 25.3408 27.3171C38.9443 27.3171 50.0116 38.5147 50.0116 52.2784C50.0116 66.042 38.9443 77.2395 25.3408 77.2395ZM25.3408 32.0369C14.3094 32.0369 5.33475 41.1172 5.33475 52.2784C5.33475 63.4396 14.3094 72.5198 25.3408 72.5198C36.3722 72.5198 45.3467 63.4396 45.3467 52.2784C45.3467 41.1172 36.3721 32.0369 25.3408 32.0369Z" fill="#FF473E"/>
<path d="M25.3413 67.3017C17.1706 67.3017 10.6486 60.7188 10.493 52.3152C10.338 43.9426 16.7009 37.4684 25.2934 37.2556C33.468 37.0483 40.19 43.8718 40.19 52.2783C40.19 60.5622 33.5289 67.3017 25.3413 67.3017ZM25.6155 42.319C25.5388 42.319 25.4612 42.3201 25.384 42.3219C19.6477 42.464 15.3988 46.7299 15.5011 52.245C15.6046 57.8462 19.9271 62.2339 25.3411 62.2339C30.767 62.2339 35.1811 57.7678 35.1811 52.2782C35.1812 46.7866 30.89 42.319 25.6155 42.319Z" fill="#FF473E"/>
<path d="M25.3409 56.3632C27.5705 56.3632 29.378 54.5344 29.378 52.2785C29.378 50.0226 27.5705 48.1938 25.3409 48.1938C23.1112 48.1938 21.3037 50.0226 21.3037 52.2785C21.3037 54.5344 23.1112 56.3632 25.3409 56.3632Z" fill="#FF473E"/>
</g>
<path d="M78.3567 65.3158C78.1181 65.3158 77.8795 65.3015 77.6408 65.2587C74.8476 64.8592 72.9105 62.2477 73.3036 59.4078L77.7812 26.8855L79.1006 8.34825C79.3112 5.49416 81.7816 3.29652 84.5608 3.55339C87.3681 3.75317 88.2524 5.97936 88.1401 9.38999C88.0278 12.8006 88.9683 13.4571 88.8139 15.6404C88.6595 17.8238 88.2805 25.4157 87.9296 27.9844C87.5787 30.553 83.3958 60.8349 83.3958 60.8349C83.0449 63.4321 80.8552 65.3158 78.3567 65.3158Z" fill="#EDC0A2"/>
<path d="M75.2545 67.7988C74.9738 67.7988 74.6931 67.7703 74.3983 67.7275C71.6191 67.2565 69.7522 64.5737 70.2154 61.7481L75.4511 30.025C75.0721 28.5551 74.2299 25.487 72.8683 22.1192C70.44 16.1113 67.9556 7.13521 67.8573 6.74991C67.0993 3.99572 68.6855 1.12736 71.3945 0.356756C74.1035 -0.399576 75.2124 1.74099 76.2792 4.12415C77.2477 6.27898 79.0584 8.26257 79.5918 10.0892C80.4902 13.1288 80.9253 14.7842 82.3009 18.1805C84.5327 23.7317 85.5433 27.4991 85.8381 29.6968C86.1328 31.8944 80.2656 63.4606 80.2656 63.4606C79.8585 66.015 77.6969 67.7988 75.2545 67.7988Z" fill="#F2C7AA"/>
<path d="M87.9575 46.3504C88.0136 45.7511 88.0417 45.1374 88.0417 44.5238C88.0417 31.6804 76.8546 18.2519 75.5773 16.7678C75.465 16.6394 75.3527 16.511 75.2264 16.3968C75.2264 16.3968 69.5977 10.9169 67.3379 8.7193C65.078 6.50738 63.7164 6.57873 61.611 5.36575C59.6038 4.20984 56.5017 1.6697 54.3681 3.92443C52.2486 6.17916 52.3188 9.76104 54.5366 11.9301L61.4987 18.7086L67.3379 24.3882C67.6888 24.8163 68.1239 25.3586 68.6152 26.0008C64.7411 24.959 60.6003 25.2302 56.3333 25.9294C53.7365 26.3575 49.301 28.9976 47.7148 31.0668C46.7744 32.294 45.9182 34.506 44.3321 36.0757C42.8582 37.517 40.5983 39.4721 42.6898 42.8114C44.7672 46.1506 49.5536 46.1506 52.8522 44.0386L60.3617 38.0308C64.9938 37.2602 70.089 41.7125 71.3242 46.4075C72.6437 51.4164 69.7241 56.5823 64.7973 57.9237C60.5161 59.0939 55.9964 56.9962 54.0734 52.9434C52.389 49.3757 48.164 47.8774 44.6689 49.5898C41.1598 51.3023 43.0126 54.613 44.711 58.1806C45.6655 60.1927 45.7357 63.7175 47.1393 65.3158C50.9994 69.7254 57.4702 72.8506 62.2426 72.8506H62.2567C71.998 72.8363 77.8231 72.0657 82.7359 67.0711C87.0872 62.6472 88.1399 55.4121 88.1399 49.1189C88.1259 48.1913 88.0698 47.2637 87.9575 46.3504Z" fill="#FFD3B6"/>
<path d="M31.842 52.2595L31.3415 50.4314L26.2243 51.8325L26.2246 51.8335C26.2176 51.8353 26.2105 51.8362 26.2035 51.8381C26.0826 51.8702 25.9692 51.9259 25.8699 52.002C25.7706 52.0781 25.6874 52.1731 25.625 52.2815C25.5626 52.3899 25.5223 52.5097 25.5064 52.6337C25.4905 52.7578 25.4993 52.8838 25.5323 53.0045C25.5654 53.1251 25.622 53.2381 25.6989 53.3367C25.7757 53.4354 25.8714 53.5179 25.9803 53.5794C26.0893 53.6409 26.2093 53.6803 26.3335 53.6952C26.4577 53.7101 26.5836 53.7002 26.704 53.6662C26.711 53.6643 26.7175 53.6615 26.7245 53.6594L26.7248 53.6604L31.842 52.2595Z" fill="#2B3B47"/>
<path d="M58.556 43.9628C68.0749 37.1581 61.9097 29.1028 51.7339 43.7644L33.7916 47.5812C33.6712 47.5987 33.5521 47.6232 33.4346 47.6546C33.4274 47.6566 33.4206 47.6596 33.4132 47.6616L33.3996 47.6645L33.3999 47.6659C31.7844 48.1287 30.8369 49.8051 31.2819 51.4303C31.7269 53.0557 33.3963 54.0155 35.0222 53.5908L35.0226 53.5922L35.0357 53.5877C35.043 53.5858 35.0504 53.585 35.0576 53.5829C35.1748 53.5501 35.2899 53.5105 35.4023 53.4643L52.7864 47.6085C69.0117 55.0417 70.2135 44.9692 58.556 43.9628Z" fill="#0074A8"/>
<defs>
<clipPath id="clip0">
<rect y="26.3512" width="50.9057" height="51.5046" fill="white"/>
</clipPath>
</defs>
</svg>
