<svg width="115" height="17" viewBox="0 0 115 17" fill="none" xmlns="http://www.w3.org/2000/svg">
<path d="M0 16.5467C3.15729 11.1398 6.2977 5.85166 9.48875 0.444824C12.7642 5.85166 15.9722 11.1398 19.2308 16.5128C18.9775 16.5467 18.8424 16.5806 18.7074 16.5806C17.2553 16.5806 15.8033 16.5636 14.3513 16.5975C13.9292 16.5975 13.7097 16.428 13.524 16.0721C12.3252 13.9026 11.1096 11.767 9.87708 9.61441C9.7589 9.42796 9.64071 9.24152 9.45499 8.95338C9.26926 9.25847 9.13419 9.46186 9.016 9.66525C7.85101 11.75 6.68603 13.8348 5.5548 15.9365C5.28466 16.445 4.96387 16.6145 4.42358 16.5975C3.19106 16.5467 1.95853 16.5806 0.742892 16.5806C0.540285 16.5806 0.337678 16.5636 0 16.5467Z" fill="url(#paint0_linear)"/>
<path d="M105.775 6.97861C105.761 7.17206 105.748 7.37934 105.748 7.5728C105.748 10.3641 105.761 13.1693 105.761 15.9606C105.761 16.085 105.761 16.2094 105.761 16.3199C105.748 16.7068 105.693 16.7759 105.327 16.7898C104.878 16.8036 104.416 16.7898 103.927 16.7898C103.9 16.5272 103.859 16.3337 103.859 16.1265C103.859 12.0638 103.859 8.01499 103.859 3.95235C103.859 3.74507 103.9 3.55161 103.927 3.28906C104.471 3.28906 104.973 3.28906 105.476 3.28906C105.734 3.28906 105.816 3.51016 105.924 3.66216C106.74 4.75382 107.555 5.85931 108.37 6.96479C109.81 8.92702 111.25 10.8754 112.69 12.8377C112.772 12.9482 112.867 13.0449 113.016 13.2384C113.057 13.0311 113.098 12.9067 113.098 12.7962C113.098 11.9533 113.084 11.1103 113.084 10.2536C113.084 8.167 113.084 6.0804 113.084 3.97999C113.084 3.85562 113.084 3.73125 113.084 3.62071C113.098 3.41343 113.206 3.30288 113.41 3.30288C113.899 3.30288 114.388 3.30288 114.918 3.30288C114.945 3.55161 115 3.74507 115 3.95235C115 8.02881 115 12.1053 115 16.1817C115 16.3614 114.959 16.5548 114.932 16.7898C114.375 16.7898 113.845 16.8174 113.329 16.7759C113.179 16.7621 113.03 16.5687 112.921 16.4305C112.106 15.3526 111.304 14.261 110.503 13.1693C109.049 11.2071 107.609 9.23102 106.155 7.26879C106.074 7.15825 105.992 7.06152 105.897 6.95097C105.856 6.96479 105.816 6.97861 105.775 6.97861Z" fill="white"/>
<path d="M53.3618 16.9834C49.6122 16.9558 46.6505 14.0677 46.6641 10.0465C46.6777 6.03914 49.585 3.12344 53.389 3.13726C57.2202 3.16489 60.046 6.0806 60.0596 10.0465C60.0732 14.0124 57.193 16.942 53.3618 16.9834ZM48.6476 10.0465C48.6204 11 48.8106 11.5942 49.0688 12.216C49.9383 14.3026 52.2342 15.4772 54.3672 14.9521C55.522 14.6757 56.473 14.0953 57.1387 13.1142C58.1983 11.5389 58.3478 9.83924 57.6957 8.05665C56.6632 5.26531 53.3075 4.17364 50.8213 5.80423C49.3269 6.78534 48.6748 8.26393 48.6476 10.0465Z" fill="white"/>
<path d="M44.8847 16.7622C44.6265 16.7898 44.4635 16.8037 44.3005 16.8037C43.9472 16.8037 43.5804 16.776 43.2272 16.8175C42.806 16.8589 42.5479 16.6931 42.3034 16.3476C41.2165 14.7585 40.0753 13.197 38.9885 11.5941C38.7711 11.2762 38.5266 11.1381 38.1462 11.1657C37.6978 11.1933 37.2359 11.1795 36.7197 11.1795C36.7061 11.4144 36.6925 11.6217 36.6925 11.829C36.6925 13.2661 36.6925 14.6894 36.6925 16.1265C36.6925 16.7898 36.6653 16.8175 35.9996 16.8175C35.7143 16.8175 35.429 16.8313 35.1301 16.8175C34.8177 16.8037 34.709 16.7069 34.6818 16.3891C34.6682 16.2509 34.6818 16.1127 34.6818 15.9745C34.6818 12.0363 34.6818 8.09799 34.6818 4.17353C34.6818 4.09062 34.6818 4.00771 34.6818 3.91098C34.6954 3.41351 34.7769 3.3306 35.2388 3.3306C36.5838 3.3306 37.9152 3.31678 39.2602 3.34442C40.2655 3.37206 41.2437 3.5517 42.1404 4.06298C43.431 4.80918 44.0559 6.24631 43.8657 7.73871C43.7435 8.76128 43.3359 9.61803 42.5072 10.2399C42.1675 10.4886 41.7871 10.6821 41.3931 10.8479C40.9312 11.0413 40.9176 11.0552 41.2165 11.4835C41.923 12.4785 42.6294 13.4596 43.3359 14.4407C43.757 15.0349 44.2054 15.6291 44.6129 16.2371C44.7352 16.3476 44.776 16.5273 44.8847 16.7622ZM36.7333 9.39693C36.8419 9.41075 36.9235 9.43839 37.005 9.43839C37.8744 9.43839 38.7303 9.4522 39.5998 9.42457C39.9123 9.41075 40.2384 9.34166 40.5508 9.24493C41.0807 9.06529 41.5426 8.76128 41.7735 8.23617C42.2626 7.11688 41.8279 5.72121 40.347 5.36192C39.1923 5.08555 38.0239 5.1961 36.8555 5.20992C36.8284 5.20992 36.8012 5.25138 36.7468 5.27901C36.7333 6.64705 36.7333 8.01508 36.7333 9.39693Z" fill="white"/>
<path d="M87.5977 11.1795C87.5977 11.4696 87.5977 11.6769 87.5977 11.8842C87.5977 13.3213 87.5977 14.7446 87.5977 16.1818C87.5977 16.7621 87.5569 16.8036 86.9999 16.8036C86.7146 16.8036 86.4293 16.8036 86.1304 16.8036C85.6685 16.7898 85.6142 16.7345 85.6006 16.2509C85.6006 16.1679 85.6006 16.085 85.6006 15.9883C85.6006 12.0224 85.6006 8.04266 85.6006 4.07674C85.6006 3.98001 85.6006 3.86946 85.6006 3.77273C85.6278 3.38582 85.6957 3.31672 86.0625 3.31672C87.5162 3.31672 88.9834 3.28909 90.4371 3.34436C91.5104 3.38582 92.5565 3.62073 93.4395 4.31166C94.5128 5.15459 94.9204 6.30152 94.7845 7.64192C94.6215 9.2725 93.7248 10.3503 92.1896 10.8616C91.8908 10.9584 91.85 11.0551 92.0538 11.3453C92.5972 12.1191 93.1406 12.8791 93.6841 13.653C94.2954 14.5097 94.9204 15.3665 95.5453 16.237C95.5861 16.2923 95.6268 16.3476 95.654 16.4167C95.7899 16.6516 95.7355 16.8036 95.491 16.8174C94.8932 16.845 94.2954 16.845 93.7112 16.8174C93.5754 16.8036 93.4124 16.624 93.3037 16.4858C92.1489 14.8552 90.9941 13.2246 89.8393 11.5802C89.6491 11.3176 89.4589 11.1795 89.1329 11.2071C88.6574 11.1933 88.1547 11.1795 87.5977 11.1795ZM87.6249 9.39687C87.72 9.42451 87.7743 9.43833 87.8151 9.43833C88.5759 9.43833 89.3367 9.46596 90.0975 9.43833C90.505 9.42451 90.9126 9.36923 91.3066 9.28632C92.1353 9.09286 92.7331 8.40194 92.8146 7.66956C92.9233 6.56407 92.3799 5.79024 91.6598 5.5415C91.1979 5.3895 90.7224 5.25132 90.2333 5.20986C89.5404 5.15459 88.8476 5.18222 88.1547 5.18222C87.9917 5.18222 87.8286 5.19604 87.6249 5.20986C87.6249 6.63317 87.6249 8.0012 87.6249 9.39687Z" fill="white"/>
<path d="M24.75 11.5387C24.75 11.8289 24.75 12.0224 24.75 12.202C24.75 13.5424 24.75 14.8966 24.75 16.237C24.75 16.7483 24.7093 16.7898 24.193 16.8036C23.8941 16.8036 23.5817 16.8036 23.2828 16.8036C22.8344 16.7898 22.7665 16.7207 22.7529 16.2509C22.7529 16.1679 22.7529 16.085 22.7529 15.9883C22.7529 12.0224 22.7529 8.05647 22.7529 4.07674C22.7529 3.98001 22.7529 3.86946 22.7529 3.77273C22.7801 3.41345 22.8752 3.31672 23.2148 3.31672C24.6685 3.31672 26.1358 3.28909 27.5894 3.34436C28.4861 3.38582 29.3692 3.56546 30.1843 3.99383C31.6923 4.7953 32.4939 6.52262 32.1135 8.20848C31.7602 9.79761 30.8228 10.7925 29.2469 11.2071C28.0649 11.5249 26.8694 11.5111 25.6603 11.5249C25.3886 11.5387 25.1033 11.5387 24.75 11.5387ZM24.7772 5.2375C24.7636 5.37568 24.75 5.47241 24.75 5.55532C24.75 6.78517 24.75 8.0012 24.75 9.23105C24.75 9.71469 24.7772 9.75615 25.2799 9.74233C26.2445 9.71469 27.2226 9.71469 28.1736 9.61797C29.2469 9.50742 30.2794 8.77504 30.1843 7.29646C30.13 6.48116 29.736 5.94224 29.0703 5.58296C28.5812 5.33423 28.0513 5.22368 27.4943 5.20986C26.7199 5.18222 25.932 5.19604 25.1576 5.19604C25.0489 5.19604 24.9266 5.22368 24.7772 5.2375Z" fill="white"/>
<path d="M64.7461 11.5388C64.7461 11.829 64.7461 12.0086 64.7461 12.2021C64.7461 13.5286 64.7461 14.8552 64.7461 16.1956C64.7461 16.7622 64.6918 16.8174 64.1348 16.8174C63.8087 16.8174 63.4827 16.8313 63.1702 16.8174C62.8577 16.8036 62.7898 16.7345 62.7626 16.4167C62.749 16.2785 62.749 16.1403 62.749 16.0021C62.749 12.05 62.749 8.09795 62.749 4.14586C62.749 3.33057 62.749 3.33057 63.5234 3.33057C64.7054 3.33057 65.9009 3.33057 67.0829 3.34438C68.0203 3.3582 68.9441 3.49639 69.8136 3.85567C71.5661 4.57423 72.4764 6.45355 72.0688 8.26378C71.7428 9.71472 70.9276 10.6544 69.5826 11.138C68.7811 11.4282 67.9252 11.4835 67.0829 11.5249C66.5123 11.5526 65.9281 11.5388 65.3575 11.5526C65.1809 11.5388 65.0043 11.5388 64.7461 11.5388ZM64.7733 9.68708C64.9635 9.71472 65.0994 9.74236 65.2352 9.74236C66.2406 9.7009 67.2323 9.7009 68.2241 9.60417C68.5909 9.57653 68.9713 9.38308 69.2973 9.18962C69.9902 8.76124 70.2212 8.08414 70.1668 7.29648C70.1261 6.49501 69.7321 5.94227 69.0392 5.58298C68.5501 5.33425 68.0203 5.2237 67.4769 5.20988C66.7025 5.18225 65.9145 5.19607 65.1401 5.19607C65.0314 5.19607 64.9091 5.2237 64.7733 5.25134C64.7733 6.7161 64.7733 8.18086 64.7733 9.68708Z" fill="white"/>
<path d="M74.9632 3.33057C77.5173 3.33057 80.017 3.33057 82.544 3.33057C82.6798 3.86949 82.6255 4.40841 82.5983 4.93351C82.5983 5.01643 82.4353 5.12697 82.3266 5.16843C82.2043 5.20988 82.0549 5.18225 81.919 5.18225C80.4654 5.18225 78.9981 5.18225 77.5445 5.18225C77.3407 5.18225 77.1505 5.18225 76.9195 5.18225C76.9195 6.42591 76.9195 7.61431 76.9195 8.87179C78.577 8.87179 80.1937 8.87179 81.8783 8.87179C81.9462 9.43835 81.9326 9.922 81.8919 10.4195C81.8919 10.5024 81.756 10.5991 81.6609 10.6406C81.5386 10.682 81.3892 10.6544 81.2533 10.6544C80.017 10.6544 78.7808 10.6544 77.5309 10.6544C77.3407 10.6544 77.1641 10.6544 76.9874 10.6544C76.8516 11.0413 76.8244 14.1643 76.9331 14.8967C77.0961 14.9105 77.2863 14.9243 77.4629 14.9243C78.9845 14.9243 80.5197 14.9243 82.0413 14.9243C82.1772 14.9243 82.313 14.9243 82.4489 14.9243C82.6391 14.9243 82.7478 15.021 82.7478 15.2007C82.7614 15.629 82.7614 16.0574 82.7478 16.4996C82.7478 16.7069 82.6119 16.8036 82.4217 16.8036C82.3402 16.8036 82.2587 16.8036 82.1636 16.8036C79.9355 16.8036 77.7211 16.8036 75.493 16.8036C74.9088 16.8036 74.8545 16.7483 74.8545 16.1403C74.8545 12.0777 74.8545 8.02886 74.8545 3.96622C74.8681 3.75894 74.936 3.55166 74.9632 3.33057Z" fill="white"/>
<path d="M100.233 10.0877C100.233 12.0775 100.233 14.0536 100.233 16.0434C100.233 16.1678 100.233 16.2784 100.233 16.4027C100.233 16.6653 100.097 16.7896 99.8658 16.7896C99.4582 16.8035 99.0507 16.8035 98.6431 16.7896C98.3306 16.7758 98.2627 16.6929 98.2355 16.3751C98.2219 16.2507 98.2355 16.1402 98.2355 16.0158C98.2355 12.0499 98.2355 8.07016 98.2355 4.10425C98.2355 3.30277 98.2355 3.30277 99.0235 3.30277C99.2952 3.30277 99.5669 3.28895 99.8386 3.30277C100.151 3.31659 100.233 3.3995 100.233 3.71733C100.246 4.15952 100.233 4.61553 100.233 5.05772C100.233 6.74358 100.233 8.41562 100.233 10.0877Z" fill="white"/>
<defs>
<linearGradient id="paint0_linear" x1="9.61462" y1="0.434061" x2="9.61462" y2="16.5898" gradientUnits="userSpaceOnUse">
<stop stop-color="#2FAF49"/>
<stop offset="1" stop-color="#059646"/>
</linearGradient>
</defs>
</svg>
